{
    "os": "Linux-3.10.0-1160.45.1.el7.x86_64-x86_64-with-redhat-7.7-Nitrogen",
    "python": "3.6.13",
    "heartbeatAt": "2021-12-09T13:38:45.779603",
    "startedAt": "2021-12-09T13:38:39.047528",
    "docker": null,
    "gpu": "NVIDIA A100-PCIE-40GB",
    "gpu_count": 2,
    "cpu_count": 32,
    "cuda": null,
    "args": [
        "-f",
        "/zhome/ca/9/146686/.local/share/jupyter/runtime/kernel-231483c2-5562-43fc-b584-90ce5191f913.json"
    ],
    "state": "running",
    "program": "<python with no main file>",
    "git": {
        "remote": "https://gitlab.gbar.dtu.dk/s194649/cars.git",
        "commit": "0911d75aa8d5f099d0f1ea91826c4abdc6df3f57"
    },
    "email": "s194649@gitlab.gbar.dtu.dk",
    "root": "/zhome/ca/9/146686/cars",
    "host": "n-62-12-19",
    "username": "s194649",
    "executable": "/appl/python/3.6.13/bin/python3"
}
