{
    "os": "Linux-3.10.0-1160.45.1.el7.x86_64-x86_64-with-redhat-7.7-Nitrogen",
    "python": "3.6.13",
    "heartbeatAt": "2021-12-12T13:48:17.613611",
    "startedAt": "2021-12-12T13:48:14.922187",
    "docker": null,
    "gpu": "NVIDIA A100-PCIE-40GB",
    "gpu_count": 2,
    "cpu_count": 32,
    "cuda": null,
    "args": [
        "-f",
        "/zhome/ca/9/146686/.local/share/jupyter/runtime/kernel-83502d96-6c05-4643-9391-3ba251f949cf.json"
    ],
    "state": "running",
    "program": "<python with no main file>",
    "git": {
        "remote": "https://gitlab.gbar.dtu.dk/s194649/cars.git",
        "commit": "bbc1dd4c97499e43a010cf44d999c6183af76fef"
    },
    "email": "s194649@gitlab.gbar.dtu.dk",
    "root": "/zhome/ca/9/146686/cars",
    "host": "n-62-12-19",
    "username": "s194649",
    "executable": "/appl/python/3.6.13/bin/python3"
}
